{
    "key": "com.seuqra.confluence.aui-tests",
    "name": "Test AUI",
    "description": "Test AUI library within Atlassian Connect",
    "version": "1.0",
    "vendor": {
        "name": "Seuqra",
        "url": "http://www.seuqra.com/"
    },
    "baseUrl": "{{localBaseUrl}}",
	"links": {
		"documentation": "https://bitbucket.org/",
		"self": "{{localBaseUrl}}/atlassian-connect.json"
	}, 
	"lifecycle": {
        // atlassian-connect-express expects this route to be configured to manage the installation handshake
        "installed": "/installed"
    },
    "authentication": {
        "type": "none"
    },
    "scopes": [
        "read"
    ],
    "modules": {
        "dynamicContentMacros": [ 
            {
                "key": "aui-table",
                "name": {
                    "value": "AUI Dynamic Table"
                },
				"documentation": {
					"url": "https://www.atlassian.com"
				},
                "featured": true,
                "url": "/render-aui-table",
				"categories": [
					"confluence-content"
				],
				"outputType": "inline",
				"bodyType": "RICH-TEXT",
                "width": "400px",
                "height": "300px",
                "description": {
                    "value": "Render a talbe using aui css class"
                }
            },
           {
                "key": "dynamic-pivot-table",
                "name": {
                    "value": "Dynamic Pivot Table"
                },
				"documentation": {
					"url": "https://www.atlassian.com"
				},
                "featured": true,
                "url": "/render-pivot-table",
				"categories": [
					"confluence-content"
				],
				"outputType": "block",
				"bodyType": "RICH-TEXT",
                "width": "400px",
                "height": "300px",
                "description": {
                    "value": "Render a pivot table in a dynamic way"
                }
            }            
            
        ],
        "staticContentMacros": [
            {
                "key": "static-pivot-table",
                "name": {
                    "value": "Static Pivot Table"
                },
				"documentation": {
					"url": "https://www.atlassian.com"
				},
                "featured": true,
                "url": "/render-pivot-table",
				"categories": [
					"confluence-content"
				],
				"outputType": "block",
				"bodyType": "RICH-TEXT",
                "width": "400px",
                "height": "300px",
                "description": {
                    "value": "Render a pivot table in a static way"
                }
            }
        ]
    }
}